<?xml version="1.0" encoding="UTF-8" standalone="no"?>
<!-- Generator: Adobe Illustrator 21.0.0, SVG Export Plug-In . SVG Version: 6.00 Build 0)  -->

<svg
   xmlns:i="&amp;ns_ai;"
   xmlns:dc="http://purl.org/dc/elements/1.1/"
   xmlns:cc="http://creativecommons.org/ns#"
   xmlns:rdf="http://www.w3.org/1999/02/22-rdf-syntax-ns#"
   xmlns:svg="http://www.w3.org/2000/svg"
   xmlns="http://www.w3.org/2000/svg"
   xmlns:sodipodi="http://sodipodi.sourceforge.net/DTD/sodipodi-0.dtd"
   xmlns:inkscape="http://www.inkscape.org/namespaces/inkscape"
   version="1.1"
   id="Warstwa_1"
   x="0px"
   y="0px"
   viewBox="0 0 746.90002 205.3"
   xml:space="preserve"
   sodipodi:docname="logo_tokeneo_pay.svg"
   width="746.90002"
   height="205.3"
   inkscape:version="0.92.4 (5da689c313, 2019-01-14)"><metadata
   id="metadata73"><rdf:RDF><cc:Work
       rdf:about=""><dc:format>image/svg+xml</dc:format><dc:type
         rdf:resource="http://purl.org/dc/dcmitype/StillImage" /></cc:Work></rdf:RDF></metadata><defs
   id="defs71" /><sodipodi:namedview
   pagecolor="#ffffff"
   bordercolor="#666666"
   borderopacity="1"
   objecttolerance="10"
   gridtolerance="10"
   guidetolerance="10"
   inkscape:pageopacity="0"
   inkscape:pageshadow="2"
   inkscape:window-width="1920"
   inkscape:window-height="1017"
   id="namedview69"
   showgrid="false"
   inkscape:zoom="0.236"
   inkscape:cx="373.5"
   inkscape:cy="102.6"
   inkscape:window-x="-8"
   inkscape:window-y="-8"
   inkscape:window-maximized="1"
   inkscape:current-layer="Warstwa_1" />
<style
   type="text/css"
   id="style2">
	.st0{fill:#FFFFFF;}
	.st1{fill:url(#SVGID_1_);}
	.st2{fill:url(#SVGID_2_);}
	.st3{fill:url(#SVGID_3_);}
	.st4{fill:url(#SVGID_4_);}
	.st5{fill:url(#SVGID_5_);}
	.st6{fill:url(#SVGID_6_);}
</style>
<switch
   id="switch66"
   transform="translate(-126.5,-397.3)">
	<foreignObject
   requiredExtensions="http://ns.adobe.com/AdobeIllustrator/10.0/"
   x="0"
   y="0"
   width="1"
   height="1">
		
	</foreignObject>
	<g
   i:extraneous="self"
   id="g64">
		<g
   id="g16">
			<path
   class="st0"
   d="M 183.8,499.4 H 150.7 V 429 H 126.5 V 401 H 208 v 28 h -24.2 z"
   id="path4"
   inkscape:connector-curvature="0"
   style="fill:#ffffff" />
			<path
   class="st0"
   d="m 379.5,460.2 h -0.3 v 39.2 H 347 V 401 h 32.1 v 36.3 h 0.3 L 405.7,401 h 38.9 l -37,45 38.8,53.4 h -40.6 z"
   id="path6"
   inkscape:connector-curvature="0"
   style="fill:#ffffff" />
			<path
   class="st0"
   d="m 458.1,401 h 67.7 v 27.5 h -36.6 v 8.5 h 34.3 v 25.7 h -34.3 v 9.2 h 38.9 v 27.5 H 458 V 401 Z"
   id="path8"
   inkscape:connector-curvature="0"
   style="fill:#ffffff" />
			<path
   class="st0"
   d="m 546.9,401 h 32.9 l 28.1,49.9 h 0.6 L 607.1,401 h 31.4 v 98.4 h -33.8 l -27.2,-47 h -0.6 l 1.4,47 h -31.4 z"
   id="path10"
   inkscape:connector-curvature="0"
   style="fill:#ffffff" />
			<path
   class="st0"
   d="m 657.7,401 h 67.7 v 27.5 h -36.6 v 8.5 h 34.3 v 25.7 h -34.3 v 9.2 h 38.9 v 27.5 H 657.6 V 401 Z"
   id="path12"
   inkscape:connector-curvature="0"
   style="fill:#ffffff" />
			<path
   class="st0"
   d="m 796.7,398.2 c 31.1,0 54.8,19.9 54.8,51.4 0,31.7 -23.6,52.5 -54.8,52.5 -31.1,0 -54.6,-20.9 -54.6,-52.5 0,-31.5 23.5,-51.4 54.6,-51.4 z m 0,73.4 c 11.1,0 19.5,-9 19.5,-22 0,-12.8 -8.3,-21.1 -19.5,-21.1 -11.3,0 -19.5,8.3 -19.5,21.1 0,13 8.2,22 19.5,22 z"
   id="path14"
   inkscape:connector-curvature="0"
   style="fill:#ffffff" />
		</g>
		<linearGradient
   id="SVGID_1_"
   gradientUnits="userSpaceOnUse"
   x1="269.77151"
   y1="445.1489"
   x2="327.9382"
   y2="386.48221">
			<stop
   offset="0"
   style="stop-color:#6EBE44"
   id="stop18" />
			<stop
   offset="0.6495"
   style="stop-color:#15AF4B"
   id="stop20" />
		</linearGradient>
		<path
   class="st1"
   d="m 314.4,461.1 c 2.6,-1 4.8,-2.4 6.6,-4 2.7,-2.3 4.1,-5.1 4.6,-8.3 h 0.1 c 0,-0.2 0,-0.3 0,-0.5 -0.4,-13.9 -5.6,-25.6 -15.5,-35.5 -10.3,-10.3 -22.8,-15.5 -37.4,-15.5 -5.6,0 -10.8,0.8 -15.8,2.3 -2.8,0.8 -5.5,1.9 -8.1,3.3 -0.3,0.2 -0.7,0.3 -1,0.5 1.5,-0.1 3.1,0.2 4.6,0.6 3.8,1.1 7.7,4 11.5,8.3 l 8.5,14.6 20.7,35.6 h 14.2 c 2.1,0.2 4.4,-0.3 7,-1.4 z m -47.5,-49.5 z"
   id="path23"
   inkscape:connector-curvature="0"
   style="fill:url(#SVGID_1_)" />
		<linearGradient
   id="SVGID_2_"
   gradientUnits="userSpaceOnUse"
   x1="250.6689"
   y1="485.67279"
   x2="361.66891"
   y2="464.67279">
			<stop
   offset="0"
   style="stop-color:#6EBE44"
   id="stop25" />
			<stop
   offset="0.6495"
   style="stop-color:#15AF4B"
   id="stop27" />
		</linearGradient>
		<path
   class="st2"
   d="m 321,457.2 c -1.8,1.5 -4,2.9 -6.6,4 -2.6,1 -4.9,1.5 -6.9,1.5 h -14.2 -41.1 l -6.5,11.7 c -1.5,4.6 -2.2,8.6 -1.9,12 -0.2,2.3 0.1,4.4 0.6,6.2 0.1,0.2 0.2,0.4 0.3,0.7 0.4,1.2 1,2.2 1.8,3.1 4,2.4 8.3,4.1 12.8,5.2 4.3,1 8.7,1.5 13.4,1.5 4.6,0 9.1,-0.5 13.3,-1.5 9,-2.2 17,-6.9 24,-13.9 10.3,-10.2 15.5,-22.6 15.5,-37.1 0,0.4 -0.1,0.9 -0.1,1.4 0,-1 0.1,-2.1 0.1,-3 h -0.1 c -0.2,3.1 -1.7,5.8 -4.4,8.2 z"
   id="path30"
   inkscape:connector-curvature="0"
   style="fill:url(#SVGID_2_)" />
		<linearGradient
   id="SVGID_3_"
   gradientUnits="userSpaceOnUse"
   x1="223.6496"
   y1="446.77701"
   x2="261.31631"
   y2="451.61029">
			<stop
   offset="0"
   style="stop-color:#6EBE44"
   id="stop32" />
			<stop
   offset="0.1505"
   style="stop-color:#60BA46"
   id="stop34" />
			<stop
   offset="0.6495"
   style="stop-color:#15AF4B"
   id="stop36" />
		</linearGradient>
		<path
   class="st3"
   d="m 272.6,427 -8.5,-14.6 c -3.9,-4.4 -7.7,-7.2 -11.5,-8.3 -1.5,-0.4 -3.1,-0.7 -4.6,-0.6 -4.5,2.4 -8.6,5.6 -12.5,9.4 -10.3,10.3 -15.5,22.8 -15.5,37.4 0,14.5 5.2,27 15.5,37.4 2.6,2.6 5.2,4.7 8,6.7 -0.1,-0.1 -0.2,-0.2 -0.2,-0.3 0.5,0.4 1,0.8 1.5,1.2 0.6,0.3 1.2,0.7 1.8,1 -0.8,-0.9 -1.4,-1.9 -1.8,-3.1 -0.1,-0.3 -0.2,-0.5 -0.3,-0.7 -0.5,-1.8 -0.8,-3.9 -0.6,-6.2 -0.3,-3.4 0.4,-7.3 1.9,-12 l 6.5,-11.7 z"
   id="path39"
   inkscape:connector-curvature="0"
   style="fill:url(#SVGID_3_)" />
		<g
   id="g62">
			<linearGradient
   id="SVGID_4_"
   gradientUnits="userSpaceOnUse"
   x1="665.06958"
   y1="560.2605"
   x2="737.96802"
   y2="560.2605">
				<stop
   offset="0"
   style="stop-color:#6EBE44"
   id="stop41" />
				<stop
   offset="0.6495"
   style="stop-color:#15AF4B"
   id="stop43" />
			</linearGradient>
			<path
   class="st4"
   d="m 683.2,602.6 h -18.1 l 14.7,-83.4 H 697 l -1.4,7.8 h 0.3 c 4.2,-5.8 10.8,-9.2 18.4,-9.2 14.9,0 23.6,10.2 23.6,24.2 0,19.3 -13.1,35 -31.2,35 -8.3,0 -14.5,-3.3 -17.5,-8.6 H 689 Z m 25.2,-70.1 c -9,0 -16,8.5 -16,18.1 0,6.9 4.5,11.9 11.9,11.9 9.5,0 15.7,-8 15.7,-18 -0.1,-6.8 -4.1,-12 -11.6,-12 z"
   id="path46"
   inkscape:connector-curvature="0"
   style="fill:url(#SVGID_4_)" />
			<linearGradient
   id="SVGID_5_"
   gradientUnits="userSpaceOnUse"
   x1="743.95367"
   y1="547.20648"
   x2="800.01202"
   y2="547.20648">
				<stop
   offset="0"
   style="stop-color:#6EBE44"
   id="stop48" />
				<stop
   offset="0.6495"
   style="stop-color:#15AF4B"
   id="stop50" />
			</linearGradient>
			<path
   class="st5"
   d="m 799.3,542.6 -3.8,21.9 c -0.7,4 -1.1,8.4 -1.1,11 h -16 c 0,-1.7 0.1,-4.1 0.5,-6 h -0.2 c -4.2,4.9 -9.8,7.3 -17.2,7.3 -7.9,0 -17.4,-3.6 -17.4,-14.9 0,-18.1 19.9,-21.9 38.7,-21.9 0.3,-1.4 0.2,-2 0.2,-2.6 0,-4.4 -3.3,-6.3 -8.8,-6.3 -5.1,0 -10.6,2.1 -14.8,5.3 L 751.9,526 c 6.8,-5.4 16.2,-8.5 24.8,-8.5 13.4,0 23.5,5.7 23.5,18.2 -0.2,2.2 -0.4,4.7 -0.9,6.9 z m -19.3,8.3 c -9,0 -19.6,1.2 -19.6,8.1 0,4.5 3.7,5.8 7.5,5.8 6.9,0 11.8,-4.9 13.1,-11.2 l 0.6,-2.7 z"
   id="path53"
   inkscape:connector-curvature="0"
   style="fill:url(#SVGID_5_)" />
			<linearGradient
   id="SVGID_6_"
   gradientUnits="userSpaceOnUse"
   x1="801.81543"
   y1="560.93872"
   x2="873.46997"
   y2="560.93872">
				<stop
   offset="0"
   style="stop-color:#6EBE44"
   id="stop55" />
				<stop
   offset="0.6495"
   style="stop-color:#15AF4B"
   id="stop57" />
			</linearGradient>
			<path
   class="st6"
   d="m 836.6,584 c -6.8,11.9 -12.1,18.6 -25.5,18.6 -3.5,0 -6.7,-0.5 -9.3,-1.2 l 2.7,-14.9 c 1.7,0.7 3.4,1 5.3,1 5.3,0 7.6,-2.8 10.4,-7.6 l 2.7,-4.6 -13,-56.1 h 19.8 l 5.7,36.8 h 0.2 l 18.6,-36.8 h 19.2 z"
   id="path60"
   inkscape:connector-curvature="0"
   style="fill:url(#SVGID_6_)" />
		</g>
	</g>
</switch>

</svg>