<?xml version="1.0" encoding="UTF-8" standalone="no"?>
<!-- Generator: Adobe Illustrator 21.0.0, SVG Export Plug-In . SVG Version: 6.00 Build 0)  -->

<svg
   xmlns:dc="http://purl.org/dc/elements/1.1/"
   xmlns:cc="http://creativecommons.org/ns#"
   xmlns:rdf="http://www.w3.org/1999/02/22-rdf-syntax-ns#"
   xmlns:svg="http://www.w3.org/2000/svg"
   xmlns="http://www.w3.org/2000/svg"
   xmlns:sodipodi="http://sodipodi.sourceforge.net/DTD/sodipodi-0.dtd"
   xmlns:inkscape="http://www.inkscape.org/namespaces/inkscape"
   version="1.1"
   id="Warstwa_1"
   x="0px"
   y="0px"
   viewBox="0 0 259.875 259.875"
   xml:space="preserve"
   sodipodi:docname="payback.svg"
   width="259.875"
   height="259.875"
   inkscape:version="0.92.4 (5da689c313, 2019-01-14)"><metadata
   id="metadata17"><rdf:RDF><cc:Work
       rdf:about=""><dc:format>image/svg+xml</dc:format><dc:type
         rdf:resource="http://purl.org/dc/dcmitype/StillImage" /></cc:Work></rdf:RDF></metadata><defs
   id="defs15" /><sodipodi:namedview
   pagecolor="#ffffff"
   bordercolor="#666666"
   borderopacity="1"
   objecttolerance="10"
   gridtolerance="10"
   guidetolerance="10"
   inkscape:pageopacity="0"
   inkscape:pageshadow="2"
   inkscape:window-width="1920"
   inkscape:window-height="1017"
   id="namedview13"
   showgrid="false"
   inkscape:zoom="0.2510981"
   inkscape:cx="130"
   inkscape:cy="129.875"
   inkscape:window-x="-8"
   inkscape:window-y="-8"
   inkscape:window-maximized="1"
   inkscape:current-layer="Warstwa_1" />
<g
   id="g10"
   transform="translate(-553,-254)">
	<path
   style="fill:#ffffff"
   d="m 598.562,383.938 c 0,46.523 37.852,84.371 84.376,84.371 46.523,0 84.371,-37.848 84.371,-84.371 0,-46.524 -37.848,-84.375 -84.371,-84.375 -46.524,0 -84.376,37.851 -84.376,84.375 z m 156.747,0 c 0,39.906 -32.465,72.371 -72.371,72.371 -39.907,0 -72.376,-32.465 -72.376,-72.371 0,-39.906 32.469,-72.375 72.376,-72.375 39.906,0 72.371,32.469 72.371,72.375 z m 0,0"
   id="path2"
   inkscape:connector-curvature="0" />
	<path
   style="fill:#ffffff"
   d="m 677.539,336.661 v 9.398 c -3.379,0.781 -6.562,2.246 -9.496,4.414 -8.023,5.922 -11.633,14.129 -9.648,21.953 1.906,7.524 8.753,12.992 17.867,14.27 20.66,2.898 24.023,5.98 23.14,13.218 -0.472,3.856 -2.687,6.618 -6.59,8.204 -6.589,2.679 -18.019,1.543 -28.699,-7.039 l -7.519,9.355 c 6.457,5.187 13.754,8.625 20.941,10.121 v 10.656 h 12 v -10.023 c 2.723,-0.317 5.344,-0.957 7.797,-1.957 7.891,-3.207 12.984,-9.719 13.98,-17.863 1.129,-9.243 -2.496,-16.399 -10.484,-20.688 -6.195,-3.324 -14.367,-4.672 -22.902,-5.867 -4.25,-0.598 -7.203,-2.59 -7.899,-5.336 -0.742,-2.934 1.18,-6.426 5.141,-9.352 4.195,-3.097 9.141,-3.55 15.117,-1.394 5.07,1.832 8.805,4.894 8.844,4.926 l 3.84,-4.61 3.859,-4.593 c -0.516,-0.434 -5.25,-4.317 -12.074,-6.864 -1.762,-0.66 -3.5,-1.164 -5.215,-1.523 v -9.406 z m 0,0"
   id="path4"
   inkscape:connector-curvature="0" />
	<path
   style="fill:#ffffff"
   d="m 682.938,266 c 25.808,0 50.355,8.246 70.64,23.477 h -15.781 v 12 h 38.613 v -38.609 h -12 v 19.836 C 741.391,264.11 712.934,254 682.938,254 611.289,254 553,312.289 553,383.938 h 12 C 565,318.907 617.906,266 682.938,266 Z m 0,0"
   id="path6"
   inkscape:connector-curvature="0" />
	<path
   style="fill:#ffffff"
   d="m 800.875,383.938 c 0,65.031 -52.906,117.937 -117.937,117.937 -25.079,0 -49.036,-7.816 -69.004,-22.273 h 15.664 v -12 h -38.61 v 38.613 h 12 v -19.844 c 22.754,17.821 50.657,27.504 79.95,27.504 71.648,0 129.937,-58.289 129.937,-129.937 z m 0,0"
   id="path8"
   inkscape:connector-curvature="0" />
</g>
</svg>