<?xml version="1.0" encoding="utf-8"?>
<!-- Generator: Adobe Illustrator 21.0.0, SVG Export Plug-In . SVG Version: 6.00 Build 0)  -->
<svg version="1.1" id="Layer_1" xmlns="http://www.w3.org/2000/svg" xmlns:xlink="http://www.w3.org/1999/xlink" x="0px" y="0px"
	 viewBox="0 0 1199.2 579" style="enable-background:new 0 0 1199.2 579;" xml:space="preserve">
<style type="text/css">
	.st0{fill:#FFFFFF;}
	.st1{fill:#F7931A;}
	.st2{fill:#0E1527;}
	.st3{fill:url(#SVGID_1_);}
	.st4{fill:url(#SVGID_2_);}
	.st5{fill:url(#SVGID_3_);}
	.st6{fill:url(#SVGID_4_);}
	.st7{fill:url(#SVGID_5_);}
	.st8{fill:url(#SVGID_6_);}
</style>
<g>
	<path class="st0" d="M111.4,542.8h976.3c22.2,0,40.1-18,40.1-40.1V76.4c0-22.2-18-40.1-40.1-40.1H111.4c-22.2,0-40.1,18-40.1,40.1
		v426.2C71.3,524.8,89.3,542.8,111.4,542.8z"/>
	<g transform="translate(-289.60744,-317.50471)">
		<path class="st1" d="M751.6,616.1c-19.1,75.7-95.4,121.9-171.2,102.8c-75.7-19.1-121.3-95.4-102.8-171.2S573,425.8,648.8,444.9
			C724.5,464,770.7,540.4,751.6,616.1L751.6,616.1z"/>
		<path class="st0" d="M677,561.9c3.1-18.5-11.7-29-30.8-35.7l6.1-25.2l-15.4-3.7l-6.1,24.6c-4.4-1.2-8-1.9-12.3-3.1l6.1-24.6
			l-15.4-3.7l-6.1,25.2c-3.1-0.6-6.8-1.2-9.9-2.5l0,0l-21.6-5.5l-4.4,16.6c0,0,11.7,2.5,11.1,2.5c6.1,1.2,7.4,5.5,7.4,9.2
			l-17.2,69.6c-0.6,1.9-2.5,4.9-7.4,3.7l-11.1-3.1l-8,17.9l20.3,4.9c3.7,1.2,7.4,1.9,11.1,3.1l-6.1,25.9l15.4,3.7l6.1-25.2
			c4.4,1.2,8,2.5,12.3,3.1l-6.1,25.2l15.4,3.7l6.1-25.9c26.5,4.9,46.2,3.1,54.8-21c6.8-19.1-0.6-30.2-14.1-37.6
			C667.8,582.3,675.2,575.5,677,561.9L677,561.9z M641.9,611.2c-4.9,19.1-37,8.6-47.4,6.1l8.6-33.8
			C613.1,586,646.9,590.9,641.9,611.2L641.9,611.2z M646.9,561.4c-4.4,17.2-31.4,8.6-40,6.8l8-30.8
			C622.8,539.2,651.2,542.9,646.9,561.4z"/>
		<g>
			<path class="st2" d="M845,531.2c6.1,0,11.7,1.2,16,3.1c4.4,2.5,8,4.9,11.1,8.6c3.1,3.7,4.9,8,6.8,13c1.2,4.9,1.9,10.5,1.9,16
				c0,8.6-1.9,17.2-4.9,25.2c-3.1,8-8,14.7-13.5,21c-5.5,6.2-12.3,10.5-20.3,14.1c-8,3.7-16,4.9-25.2,4.9c-1.2,0-3.1,0-6.1,0
				s-6.1-0.6-9.9-0.6c-3.7-0.6-8-1.2-11.7-2.5c-4.4-1.2-8-2.5-11.7-4.4l33.2-140.4l29.6-4.9l-11.7,49.8c2.5-1.2,4.9-1.9,8-2.5
				C839.5,531.8,841.9,531.2,845,531.2L845,531.2z M819.8,613.6c4.4,0,8.6-1.2,13-3.1c4.4-1.9,7.4-4.9,10.5-8.6
				c3.1-3.7,4.9-8,6.8-12.3c1.9-4.9,2.5-9.2,2.5-14.7c0-6.1-1.2-11.1-3.1-14.1c-1.9-3.7-6.1-4.9-11.1-4.9c-1.9,0-4.4,0.6-6.8,1.2
				c-3.1,0.6-5.5,1.9-8,4.4l-12.8,52.2C811.4,613.6,819.8,613.6,819.8,613.6z"/>
			<path class="st2" d="M911.6,635.2h-28.3l24-101.5h29L911.6,635.2z M925.7,521.3c-4.4,0-7.4-1.2-11.1-3.7
				c-3.1-2.5-4.9-6.1-4.9-11.1c0-2.5,0.6-5.5,1.9-7.4c1.2-1.9,2.5-4.4,4.4-6.1c1.9-1.9,3.7-3.1,6.1-4.4c2.5-1.2,4.9-1.9,7.4-1.9
				c3.7,0,7.4,1.2,11.1,3.7c3.1,2.5,4.9,6.1,4.9,11.1c0,2.5-0.6,5.5-1.9,7.4c-1.2,2.5-2.5,4.4-4.4,6.1c-1.9,1.9-3.7,3.1-6.1,4.4
				C930.6,520.7,928.2,521.3,925.7,521.3L925.7,521.3z"/>
			<path class="st2" d="M960.8,508.4l30.2-4.9l-7.4,29.6h32l-5.5,23.4h-32l-8.6,35.7c-0.6,3.1-1.2,5.5-1.2,8c0,2.5,0,4.9,1.2,6.8
				c0.6,1.9,2.5,3.1,4.4,4.4c1.9,1.2,4.9,1.9,8.6,1.9c3.1,0,6.1-0.6,9.2-0.6c3.1-0.6,5.5-1.2,8.6-2.5l1.9,22.1
				c-3.7,1.2-8,2.5-12.3,3.7s-9.9,1.9-16,1.9c-8.6,0-16-1.2-21-3.7c-4.9-2.5-8.6-6.1-10.5-11.1c-1.9-4.4-3.1-9.9-2.5-16
				c0.6-6.1,1.2-12.3,2.5-18.5L960.8,508.4L960.8,508.4z"/>
			<path class="st2" d="M1014.3,594.5c0-8.6,1.2-17.2,4.4-24.6c3.1-8,6.8-14.7,12.3-20.3s11.7-10.5,19.1-13.5
				c7.4-3.1,16-4.9,25.2-4.9c5.5,0,11.1,0.6,15.4,1.9c4.4,1.2,8.6,2.5,12.3,4.4l-9.9,22.1c-2.5-1.2-5.5-1.9-8-3.1
				c-3.1-0.6-6.1-1.2-9.9-1.2c-9.2,0-17.2,3.1-22.7,9.9c-5.5,6.8-8.6,15.4-8.6,26.5c0,6.8,1.2,11.7,4.4,16c3.1,4.4,8,6.1,15.4,6.1
				c3.7,0,7.4-0.6,11.1-1.2c3.7-0.6,6.8-1.9,9.2-3.1l1.9,22.7c-3.7,1.2-7.4,2.5-11.7,3.7c-4.4,1.2-9.9,1.9-15.4,1.9
				c-8,0-14.7-1.2-20.3-3.7c-5.5-2.5-9.9-5.5-13.5-9.2c-3.6-3.7-6.1-8.6-8-13.5C1015,605.6,1014.3,600.1,1014.3,594.5L1014.3,594.5z
				"/>
			<path class="st2" d="M1141.1,637.7c-6.8,0-13-1.2-17.9-3.1s-9.2-4.9-12.3-8.6c-3.1-3.7-5.5-8-7.4-13c-1.9-4.9-2.5-10.5-2.5-16.6
				c0-8,1.2-15.4,3.7-23.4c2.5-8,6.1-14.7,11.1-21c4.9-6.1,11.1-11.1,17.9-15.4c6.8-3.7,15.4-6.1,24-6.1c6.8,0,12.3,1.2,17.9,3.1
				c4.9,1.9,9.2,4.9,12.3,8.6c3.1,3.7,5.5,8,7.4,13c1.9,4.9,2.5,10.5,2.5,16.6c0,8-1.2,15.4-3.7,23.4c-2.5,8-6.1,14.7-11.1,21
				c-5,6.2-10.5,11.1-17.9,15.4C1158.4,635.8,1150.4,637.7,1141.1,637.7L1141.1,637.7z M1155.3,555.2c-4.4,0-8,1.2-11.1,3.7
				c-3.1,2.5-6.1,5.5-8,9.2c-2.5,3.7-3.7,8-4.9,12.3c-1.2,4.4-1.9,8.6-1.9,13c0,6.1,1.2,11.7,3.1,14.7c1.9,3.7,5.5,5.5,11.1,5.5
				c4.4,0,8-1.2,11.1-3.7c3.1-2.5,6.1-5.5,8-9.2c2.5-3.7,3.7-8,4.9-12.3c1.2-4.4,1.9-8.6,1.9-13c0-6.1-1.2-11.7-3.1-14.7
				C1164.6,557,1160.8,555.2,1155.3,555.2L1155.3,555.2z"/>
			<path class="st2" d="M1229.2,635.2h-28.3l24-101.5h29L1229.2,635.2z M1242.7,521.3c-3.7,0-7.4-1.2-11.1-3.7
				c-3.1-2.5-4.9-6.1-4.9-11.1c0-2.5,0.6-5.5,1.9-7.4c1.2-2.5,2.5-4.4,4.4-6.1c1.9-1.9,3.7-3.1,6.1-4.4c2.5-1.2,4.9-1.9,7.4-1.9
				c4.4,0,7.4,1.2,11.1,3.7c3.1,2.5,4.9,6.1,4.9,11.1c0,2.5-0.6,5.5-1.9,7.4c-1.2,2.5-2.5,4.4-4.4,6.1c-1.9,1.9-3.7,3.1-6.1,4.4
				C1248.2,520.7,1245.8,521.3,1242.7,521.3z"/>
			<path class="st2" d="M1274.1,537.9c2.5-0.6,4.4-1.2,7.4-2.5c2.5-0.6,5.5-1.9,8.6-2.5c3.1-0.6,6.8-1.2,11.1-1.9
				c4.4-0.6,8.6-0.6,13.5-0.6c14.7,0,25.2,4.4,31.4,13c5.5,8.6,6.8,21,3.1,35.7l-13,54.8h-29l13-53.6c0.6-3.1,1.2-6.8,1.9-9.9
				s0.6-6.1,0-8c-0.6-2.5-1.9-4.4-3.7-5.5c-1.9-1.2-4.9-2.5-8.6-2.5c-3.7,0-7.4,0.6-11.1,1.2l-18.5,78.2h-29L1274.1,537.9z"/>
		</g>
	</g>
	<g>
		<g>
			<path class="st2" d="M519.7,409.2h-18.5v-39.3h-13.5v-15.6h45.5v15.6h-13.5V409.2z"/>
			<path class="st2" d="M629.1,387.2h-0.2v21.9h-18v-55h17.9v20.3h0.2l14.7-20.3h21.7l-20.7,25.1l21.7,29.8h-22.7L629.1,387.2z"/>
			<path class="st2" d="M673,354.2h37.8v15.4h-20.5v4.7h19.2v14.4h-19.2v5.1h21.7v15.4H673L673,354.2L673,354.2z"/>
			<path class="st2" d="M722.6,354.2H741l15.7,27.9h0.3l-0.8-27.9h17.5v55h-18.9l-15.2-26.3h-0.3l0.8,26.3h-17.5V354.2z"/>
			<path class="st2" d="M784.5,354.2h37.8v15.4h-20.5v4.7h19.2v14.4h-19.2v5.1h21.7v15.4h-39.2L784.5,354.2L784.5,354.2z"/>
			<path class="st2" d="M862.2,352.6c17.4,0,30.6,11.1,30.6,28.7c0,17.7-13.2,29.3-30.6,29.3c-17.4,0-30.5-11.7-30.5-29.3
				C831.7,363.7,844.8,352.6,862.2,352.6z M862.2,393.6c6.2,0,10.9-5,10.9-12.3c0-7.2-4.6-11.8-10.9-11.8c-6.3,0-10.9,4.6-10.9,11.8
				C851.3,388.6,855.9,393.6,862.2,393.6z"/>
		</g>
		
			<linearGradient id="SVGID_1_" gradientUnits="userSpaceOnUse" x1="567.7608" y1="198.3546" x2="600.2627" y2="231.1358" gradientTransform="matrix(1 0 0 -1 0 577.1779)">
			<stop  offset="0" style="stop-color:#6EBE44"/>
			<stop  offset="0.6495" style="stop-color:#15AF4B"/>
		</linearGradient>
		<path class="st3" d="M592.7,387.8c1.5-0.6,2.7-1.3,3.7-2.2c1.5-1.3,2.3-2.8,2.6-4.6h0.1c0-0.1,0-0.2,0-0.3
			c-0.2-7.8-3.1-14.3-8.7-19.8c-5.8-5.8-12.7-8.7-20.9-8.7c-3.1,0-6,0.4-8.8,1.3c-1.6,0.4-3.1,1.1-4.5,1.8c-0.2,0.1-0.4,0.2-0.6,0.3
			c0.8-0.1,1.7,0.1,2.6,0.3c2.1,0.6,4.3,2.2,6.4,4.6l4.7,8.2l11.6,19.9h7.9C590,388.6,591.3,388.4,592.7,387.8z M566.2,360.1
			L566.2,360.1L566.2,360.1z"/>
		
			<linearGradient id="SVGID_2_" gradientUnits="userSpaceOnUse" x1="557.1019" y1="175.6992" x2="619.1255" y2="187.4334" gradientTransform="matrix(1 0 0 -1 0 577.1779)">
			<stop  offset="0" style="stop-color:#6EBE44"/>
			<stop  offset="0.6495" style="stop-color:#15AF4B"/>
		</linearGradient>
		<path class="st4" d="M596.4,385.6c-1,0.8-2.2,1.6-3.7,2.2c-1.5,0.6-2.7,0.8-3.9,0.8h-7.9h-23l-3.6,6.5c-0.8,2.6-1.2,4.8-1.1,6.7
			c-0.1,1.3,0.1,2.5,0.3,3.5c0.1,0.1,0.1,0.2,0.2,0.4c0.2,0.7,0.6,1.2,1,1.7c2.2,1.3,4.6,2.3,7.2,2.9c2.4,0.6,4.9,0.8,7.5,0.8
			c2.6,0,5.1-0.3,7.4-0.8c5-1.2,9.5-3.9,13.4-7.8c5.8-5.7,8.7-12.6,8.7-20.7c0,0.2-0.1,0.5-0.1,0.8c0-0.6,0.1-1.2,0.1-1.7h-0.1
			C598.7,382.7,597.9,384.2,596.4,385.6z"/>
		
			<linearGradient id="SVGID_3_" gradientUnits="userSpaceOnUse" x1="542.0053" y1="197.4314" x2="563.0524" y2="194.7307" gradientTransform="matrix(1 0 0 -1 0 577.1779)">
			<stop  offset="0" style="stop-color:#6EBE44"/>
			<stop  offset="0.1505" style="stop-color:#60BA46"/>
			<stop  offset="0.6495" style="stop-color:#15AF4B"/>
		</linearGradient>
		<path class="st5" d="M569.4,368.7l-4.7-8.2c-2.2-2.5-4.3-4-6.4-4.6c-0.8-0.2-1.7-0.4-2.6-0.3c-2.5,1.3-4.8,3.1-7,5.3
			c-5.8,5.8-8.7,12.7-8.7,20.9c0,8.1,2.9,15.1,8.7,20.9c1.5,1.5,2.9,2.6,4.5,3.7c-0.1-0.1-0.1-0.1-0.1-0.2c0.3,0.2,0.6,0.4,0.8,0.7
			c0.3,0.2,0.7,0.4,1,0.6c-0.4-0.5-0.8-1.1-1-1.7c-0.1-0.2-0.1-0.3-0.2-0.4c-0.3-1-0.4-2.2-0.3-3.5c-0.2-1.9,0.2-4.1,1.1-6.7
			l3.6-6.5L569.4,368.7z"/>
		<g>
			
				<linearGradient id="SVGID_4_" gradientUnits="userSpaceOnUse" x1="788.6749" y1="134.0516" x2="829.4084" y2="134.0516" gradientTransform="matrix(1 0 0 -1 0 577.1779)">
				<stop  offset="0" style="stop-color:#6EBE44"/>
				<stop  offset="0.6495" style="stop-color:#15AF4B"/>
			</linearGradient>
			<path class="st6" d="M798.8,466.8h-10.1l8.2-46.6h9.6l-0.8,4.4h0.2c2.3-3.2,6-5.1,10.3-5.1c8.3,0,13.2,5.7,13.2,13.5
				c0,10.8-7.3,19.6-17.4,19.6c-4.6,0-8.1-1.8-9.8-4.8H802L798.8,466.8z M812.9,427.6c-5,0-8.9,4.7-8.9,10.1c0,3.9,2.5,6.6,6.6,6.6
				c5.3,0,8.8-4.5,8.8-10.1C819.3,430.6,817.1,427.6,812.9,427.6z"/>
			
				<linearGradient id="SVGID_5_" gradientUnits="userSpaceOnUse" x1="832.736" y1="141.3436" x2="864.0831" y2="141.3436" gradientTransform="matrix(1 0 0 -1 0 577.1779)">
				<stop  offset="0" style="stop-color:#6EBE44"/>
				<stop  offset="0.6495" style="stop-color:#15AF4B"/>
			</linearGradient>
			<path class="st7" d="M863.7,433.3l-2.1,12.2c-0.4,2.2-0.6,4.7-0.6,6.1H852c0-0.9,0.1-2.3,0.3-3.4h-0.1c-2.3,2.7-5.5,4.1-9.6,4.1
				c-4.4,0-9.7-2-9.7-8.3c0-10.1,11.1-12.2,21.6-12.2c0.2-0.8,0.1-1.1,0.1-1.5c0-2.5-1.8-3.5-4.9-3.5c-2.8,0-5.9,1.2-8.3,3l-4.2-5.8
				c3.8-3,9.1-4.7,13.9-4.7c7.5,0,13.1,3.2,13.1,10.2C864.1,430.7,863.9,432.1,863.7,433.3z M852.9,437.9c-5,0-11,0.7-11,4.5
				c0,2.5,2.1,3.2,4.2,3.2c3.9,0,6.6-2.7,7.3-6.3l0.3-1.5L852.9,437.9L852.9,437.9z"/>
			
				<linearGradient id="SVGID_6_" gradientUnits="userSpaceOnUse" x1="865.0588" y1="133.6605" x2="905.0669" y2="133.6605" gradientTransform="matrix(1 0 0 -1 0 577.1779)">
				<stop  offset="0" style="stop-color:#6EBE44"/>
				<stop  offset="0.6495" style="stop-color:#15AF4B"/>
			</linearGradient>
			<path class="st8" d="M884.5,456.4c-3.8,6.6-6.8,10.4-14.2,10.4c-2,0-3.7-0.3-5.2-0.7l1.5-8.3c0.9,0.4,1.9,0.6,3,0.6
				c3,0,4.2-1.6,5.8-4.2l1.5-2.6l-7.3-31.3h11.1l3.2,20.6h0.1l10.4-20.6h10.7L884.5,456.4z"/>
		</g>
	</g>
</g>
</svg>
